<?xml version="1.0" encoding="UTF-8" standalone="no"?>
<!-- Created with matplotlib (http://matplotlib.org/) -->

<svg
   xmlns:dc="http://purl.org/dc/elements/1.1/"
   xmlns:cc="http://creativecommons.org/ns#"
   xmlns:rdf="http://www.w3.org/1999/02/22-rdf-syntax-ns#"
   xmlns:svg="http://www.w3.org/2000/svg"
   xmlns="http://www.w3.org/2000/svg"
   xmlns:xlink="http://www.w3.org/1999/xlink"
   xmlns:sodipodi="http://sodipodi.sourceforge.net/DTD/sodipodi-0.dtd"
   xmlns:inkscape="http://www.inkscape.org/namespaces/inkscape"
   height="288pt"
   version="1.1"
   viewBox="0 0 432 288"
   width="432pt"
   id="svg2"
   inkscape:version="0.91 r13725"
   sodipodi:docname="zero_path.svg">
  <metadata
     id="metadata609">
    <rdf:RDF>
      <cc:Work
         rdf:about="">
        <dc:format>image/svg+xml</dc:format>
        <dc:type
           rdf:resource="http://purl.org/dc/dcmitype/StillImage" />
      </cc:Work>
    </rdf:RDF>
  </metadata>
  <sodipodi:namedview
     pagecolor="#ffffff"
     bordercolor="#666666"
     borderopacity="1"
     objecttolerance="10"
     gridtolerance="10"
     guidetolerance="10"
     inkscape:pageopacity="0"
     inkscape:pageshadow="2"
     inkscape:window-width="1366"
     inkscape:window-height="705"
     id="namedview607"
     showgrid="false"
     inkscape:zoom="0.65555556"
     inkscape:cx="270"
     inkscape:cy="180"
     inkscape:window-x="-8"
     inkscape:window-y="-8"
     inkscape:window-maximized="1"
     inkscape:current-layer="figure_1" />
  <defs
     id="defs4">
    <style
       type="text/css"
       id="style6">
*{stroke-linecap:butt;stroke-linejoin:round;}
  </style>
  </defs>
  <g
     id="figure_1">
    <g
       id="axes_1">
      <g
         id="patch_2">
        <path
           d=" M54 252 L388.8 252 L388.8 28.8 L54 28.8 z "
           style="fill:#ffffff;"
           id="path14" />
      </g>
      <g
         id="line2d_1">
        <defs
           id="defs17">
          <path
             d=" M0 3 C0.795609 3 1.55874 2.6839 2.12132 2.12132 C2.6839 1.55874 3 0.795609 3 0 C3 -0.795609 2.6839 -1.55874 2.12132 -2.12132 C1.55874 -2.6839 0.795609 -3 0 -3 C-0.795609 -3 -1.55874 -2.6839 -2.12132 -2.12132 C-2.6839 -1.55874 -3 -0.795609 -3 0 C-3 0.795609 -2.6839 1.55874 -2.12132 2.12132 C-1.55874 2.6839 -0.795609 3 0 3 z "
             id="mf1e9a9e4ae"
             style="stroke:#000000;stroke-width:0.5;" />
        </defs>
        <g
           clip-path="url(#p124b8dd147)"
           id="g20">
          <use
             style="fill:#0000ff;stroke:#000000;stroke-width:0.5;"
             x="54.0"
             xlink:href="#mf1e9a9e4ae"
             y="252.0"
             id="use22" />
          <use
             style="fill:#0000ff;stroke:#000000;stroke-width:0.5;"
             x="54.2016406313"
             xlink:href="#mf1e9a9e4ae"
             y="248.811428571"
             id="use24" />
          <use
             style="fill:#0000ff;stroke:#000000;stroke-width:0.5;"
             x="54.8060767551"
             xlink:href="#mf1e9a9e4ae"
             y="245.622857143"
             id="use26" />
          <use
             style="fill:#0000ff;stroke:#000000;stroke-width:0.5;"
             x="55.8118522319"
             xlink:href="#mf1e9a9e4ae"
             y="242.434285714"
             id="use28" />
          <use
             style="fill:#0000ff;stroke:#000000;stroke-width:0.5;"
             x="57.2165440605"
             xlink:href="#mf1e9a9e4ae"
             y="239.245714286"
             id="use30" />
          <use
             style="fill:#0000ff;stroke:#000000;stroke-width:0.5;"
             x="59.0167682152"
             xlink:href="#mf1e9a9e4ae"
             y="236.057142857"
             id="use32" />
          <use
             style="fill:#0000ff;stroke:#000000;stroke-width:0.5;"
             x="61.2081877984"
             xlink:href="#mf1e9a9e4ae"
             y="232.868571429"
             id="use34" />
          <use
             style="fill:#0000ff;stroke:#000000;stroke-width:0.5;"
             x="63.7855234884"
             xlink:href="#mf1e9a9e4ae"
             y="229.68"
             id="use36" />
          <use
             style="fill:#0000ff;stroke:#000000;stroke-width:0.5;"
             x="66.7425662576"
             xlink:href="#mf1e9a9e4ae"
             y="226.491428571"
             id="use38" />
          <use
             style="fill:#0000ff;stroke:#000000;stroke-width:0.5;"
             x="70.0721923311"
             xlink:href="#mf1e9a9e4ae"
             y="223.302857143"
             id="use40" />
          <use
             style="fill:#0000ff;stroke:#000000;stroke-width:0.5;"
             x="73.7663803481"
             xlink:href="#mf1e9a9e4ae"
             y="220.114285714"
             id="use42" />
          <use
             style="fill:#0000ff;stroke:#000000;stroke-width:0.5;"
             x="77.816230686"
             xlink:href="#mf1e9a9e4ae"
             y="216.925714286"
             id="use44" />
          <use
             style="fill:#0000ff;stroke:#000000;stroke-width:0.5;"
             x="82.2119869006"
             xlink:href="#mf1e9a9e4ae"
             y="213.737142857"
             id="use46" />
          <use
             style="fill:#0000ff;stroke:#000000;stroke-width:0.5;"
             x="86.9430592301"
             xlink:href="#mf1e9a9e4ae"
             y="210.548571429"
             id="use48" />
          <use
             style="fill:#0000ff;stroke:#000000;stroke-width:0.5;"
             x="91.9980501071"
             xlink:href="#mf1e9a9e4ae"
             y="207.36"
             id="use50" />
          <use
             style="fill:#0000ff;stroke:#000000;stroke-width:0.5;"
             x="97.3647816156"
             xlink:href="#mf1e9a9e4ae"
             y="204.171428571"
             id="use52" />
          <use
             style="fill:#0000ff;stroke:#000000;stroke-width:0.5;"
             x="103.030324829"
             xlink:href="#mf1e9a9e4ae"
             y="200.982857143"
             id="use54" />
          <use
             style="fill:#0000ff;stroke:#000000;stroke-width:0.5;"
             x="108.981030959"
             xlink:href="#mf1e9a9e4ae"
             y="197.794285714"
             id="use56" />
          <use
             style="fill:#0000ff;stroke:#000000;stroke-width:0.5;"
             x="115.202564231"
             xlink:href="#mf1e9a9e4ae"
             y="194.605714286"
             id="use58" />
          <use
             style="fill:#0000ff;stroke:#000000;stroke-width:0.5;"
             x="121.679936428"
             xlink:href="#mf1e9a9e4ae"
             y="191.417142857"
             id="use60" />
          <use
             style="fill:#0000ff;stroke:#000000;stroke-width:0.5;"
             x="128.397542993"
             xlink:href="#mf1e9a9e4ae"
             y="188.228571429"
             id="use62" />
          <use
             style="fill:#0000ff;stroke:#000000;stroke-width:0.5;"
             x="135.339200622"
             xlink:href="#mf1e9a9e4ae"
             y="185.04"
             id="use64" />
          <use
             style="fill:#0000ff;stroke:#000000;stroke-width:0.5;"
             x="142.488186255"
             xlink:href="#mf1e9a9e4ae"
             y="181.851428571"
             id="use66" />
          <use
             style="fill:#0000ff;stroke:#000000;stroke-width:0.5;"
             x="149.82727736"
             xlink:href="#mf1e9a9e4ae"
             y="178.662857143"
             id="use68" />
          <use
             style="fill:#0000ff;stroke:#000000;stroke-width:0.5;"
             x="157.338793422"
             xlink:href="#mf1e9a9e4ae"
             y="175.474285714"
             id="use70" />
          <use
             style="fill:#0000ff;stroke:#000000;stroke-width:0.5;"
             x="165.004638542"
             xlink:href="#mf1e9a9e4ae"
             y="172.285714286"
             id="use72" />
          <use
             style="fill:#0000ff;stroke:#000000;stroke-width:0.5;"
             x="172.806345028"
             xlink:href="#mf1e9a9e4ae"
             y="169.097142857"
             id="use74" />
          <use
             style="fill:#0000ff;stroke:#000000;stroke-width:0.5;"
             x="180.725117884"
             xlink:href="#mf1e9a9e4ae"
             y="165.908571429"
             id="use76" />
          <use
             style="fill:#0000ff;stroke:#000000;stroke-width:0.5;"
             x="188.741880095"
             xlink:href="#mf1e9a9e4ae"
             y="162.72"
             id="use78" />
          <use
             style="fill:#0000ff;stroke:#000000;stroke-width:0.5;"
             x="196.837318576"
             xlink:href="#mf1e9a9e4ae"
             y="159.531428571"
             id="use80" />
          <use
             style="fill:#0000ff;stroke:#000000;stroke-width:0.5;"
             x="204.991930709"
             xlink:href="#mf1e9a9e4ae"
             y="156.342857143"
             id="use82" />
          <use
             style="fill:#0000ff;stroke:#000000;stroke-width:0.5;"
             x="213.186071318"
             xlink:href="#mf1e9a9e4ae"
             y="153.154285714"
             id="use84" />
          <use
             style="fill:#0000ff;stroke:#000000;stroke-width:0.5;"
             x="221.4"
             xlink:href="#mf1e9a9e4ae"
             y="149.965714286"
             id="use86" />
          <use
             style="fill:#0000ff;stroke:#000000;stroke-width:0.5;"
             x="229.613928682"
             xlink:href="#mf1e9a9e4ae"
             y="146.777142857"
             id="use88" />
          <use
             style="fill:#0000ff;stroke:#000000;stroke-width:0.5;"
             x="237.808069291"
             xlink:href="#mf1e9a9e4ae"
             y="143.588571429"
             id="use90" />
          <use
             style="fill:#0000ff;stroke:#000000;stroke-width:0.5;"
             x="245.962681424"
             xlink:href="#mf1e9a9e4ae"
             y="140.4"
             id="use92" />
          <use
             style="fill:#0000ff;stroke:#000000;stroke-width:0.5;"
             x="254.058119905"
             xlink:href="#mf1e9a9e4ae"
             y="137.211428571"
             id="use94" />
          <use
             style="fill:#0000ff;stroke:#000000;stroke-width:0.5;"
             x="262.074882116"
             xlink:href="#mf1e9a9e4ae"
             y="134.022857143"
             id="use96" />
          <use
             style="fill:#0000ff;stroke:#000000;stroke-width:0.5;"
             x="269.993654972"
             xlink:href="#mf1e9a9e4ae"
             y="130.834285714"
             id="use98" />
          <use
             style="fill:#0000ff;stroke:#000000;stroke-width:0.5;"
             x="277.795361458"
             xlink:href="#mf1e9a9e4ae"
             y="127.645714286"
             id="use100" />
          <use
             style="fill:#0000ff;stroke:#000000;stroke-width:0.5;"
             x="285.461206578"
             xlink:href="#mf1e9a9e4ae"
             y="124.457142857"
             id="use102" />
          <use
             style="fill:#0000ff;stroke:#000000;stroke-width:0.5;"
             x="292.97272264"
             xlink:href="#mf1e9a9e4ae"
             y="121.268571429"
             id="use104" />
          <use
             style="fill:#0000ff;stroke:#000000;stroke-width:0.5;"
             x="300.311813745"
             xlink:href="#mf1e9a9e4ae"
             y="118.08"
             id="use106" />
          <use
             style="fill:#0000ff;stroke:#000000;stroke-width:0.5;"
             x="307.460799378"
             xlink:href="#mf1e9a9e4ae"
             y="114.891428571"
             id="use108" />
          <use
             style="fill:#0000ff;stroke:#000000;stroke-width:0.5;"
             x="314.402457007"
             xlink:href="#mf1e9a9e4ae"
             y="111.702857143"
             id="use110" />
          <use
             style="fill:#0000ff;stroke:#000000;stroke-width:0.5;"
             x="321.120063572"
             xlink:href="#mf1e9a9e4ae"
             y="108.514285714"
             id="use112" />
          <use
             style="fill:#0000ff;stroke:#000000;stroke-width:0.5;"
             x="327.597435769"
             xlink:href="#mf1e9a9e4ae"
             y="105.325714286"
             id="use114" />
          <use
             style="fill:#0000ff;stroke:#000000;stroke-width:0.5;"
             x="333.818969041"
             xlink:href="#mf1e9a9e4ae"
             y="102.137142857"
             id="use116" />
          <use
             style="fill:#0000ff;stroke:#000000;stroke-width:0.5;"
             x="339.769675171"
             xlink:href="#mf1e9a9e4ae"
             y="98.9485714286"
             id="use118" />
          <use
             style="fill:#0000ff;stroke:#000000;stroke-width:0.5;"
             x="345.435218384"
             xlink:href="#mf1e9a9e4ae"
             y="95.76"
             id="use120" />
          <use
             style="fill:#0000ff;stroke:#000000;stroke-width:0.5;"
             x="350.801949893"
             xlink:href="#mf1e9a9e4ae"
             y="92.5714285714"
             id="use122" />
          <use
             style="fill:#0000ff;stroke:#000000;stroke-width:0.5;"
             x="355.85694077"
             xlink:href="#mf1e9a9e4ae"
             y="89.3828571429"
             id="use124" />
          <use
             style="fill:#0000ff;stroke:#000000;stroke-width:0.5;"
             x="360.588013099"
             xlink:href="#mf1e9a9e4ae"
             y="86.1942857143"
             id="use126" />
          <use
             style="fill:#0000ff;stroke:#000000;stroke-width:0.5;"
             x="364.983769314"
             xlink:href="#mf1e9a9e4ae"
             y="83.0057142857"
             id="use128" />
          <use
             style="fill:#0000ff;stroke:#000000;stroke-width:0.5;"
             x="369.033619652"
             xlink:href="#mf1e9a9e4ae"
             y="79.8171428571"
             id="use130" />
          <use
             style="fill:#0000ff;stroke:#000000;stroke-width:0.5;"
             x="372.727807669"
             xlink:href="#mf1e9a9e4ae"
             y="76.6285714286"
             id="use132" />
          <use
             style="fill:#0000ff;stroke:#000000;stroke-width:0.5;"
             x="376.057433742"
             xlink:href="#mf1e9a9e4ae"
             y="73.44"
             id="use134" />
          <use
             style="fill:#0000ff;stroke:#000000;stroke-width:0.5;"
             x="379.014476512"
             xlink:href="#mf1e9a9e4ae"
             y="70.2514285714"
             id="use136" />
          <use
             style="fill:#0000ff;stroke:#000000;stroke-width:0.5;"
             x="381.591812202"
             xlink:href="#mf1e9a9e4ae"
             y="67.0628571429"
             id="use138" />
          <use
             style="fill:#0000ff;stroke:#000000;stroke-width:0.5;"
             x="383.783231785"
             xlink:href="#mf1e9a9e4ae"
             y="63.8742857143"
             id="use140" />
          <use
             style="fill:#0000ff;stroke:#000000;stroke-width:0.5;"
             x="385.58345594"
             xlink:href="#mf1e9a9e4ae"
             y="60.6857142857"
             id="use142" />
          <use
             style="fill:#0000ff;stroke:#000000;stroke-width:0.5;"
             x="386.988147768"
             xlink:href="#mf1e9a9e4ae"
             y="57.4971428571"
             id="use144" />
          <use
             style="fill:#0000ff;stroke:#000000;stroke-width:0.5;"
             x="387.993923245"
             xlink:href="#mf1e9a9e4ae"
             y="54.3085714286"
             id="use146" />
          <use
             style="fill:#0000ff;stroke:#000000;stroke-width:0.5;"
             x="388.598359369"
             xlink:href="#mf1e9a9e4ae"
             y="51.12"
             id="use148" />
        </g>
      </g>
      <g
         id="patch_3">
        <path
           d=" M54 28.8 L388.8 28.8"
           style="fill:none;stroke:#000000;stroke-linecap:square;stroke-linejoin:miter;"
           id="path151" />
      </g>
      <g
         id="patch_4">
        <path
           d=" M388.8 252 L388.8 28.8"
           style="fill:none;stroke:#000000;stroke-linecap:square;stroke-linejoin:miter;"
           id="path154" />
      </g>
      <g
         id="patch_5">
        <path
           d=" M54 252 L388.8 252"
           style="fill:none;stroke:#000000;stroke-linecap:square;stroke-linejoin:miter;"
           id="path157" />
      </g>
      <g
         id="patch_6">
        <path
           d=" M54 252 L54 28.8"
           style="fill:none;stroke:#000000;stroke-linecap:square;stroke-linejoin:miter;"
           id="path160" />
      </g>
      <g
         id="matplotlib.axis_1">
        <g
           id="xtick_1">
          <g
             id="line2d_2">
            <defs
               id="defs165">
              <path
                 d=" M0 0 L0 -4"
                 id="m93b0483c22"
                 style="stroke:#000000;stroke-width:0.5;" />
            </defs>
            <g
               id="g168">
              <use
                 style="stroke:#000000;stroke-width:0.5;"
                 x="54.0"
                 xlink:href="#m93b0483c22"
                 y="252.0"
                 id="use170" />
            </g>
          </g>
          <g
             id="line2d_3">
            <defs
               id="defs173">
              <path
                 d=" M0 0 L0 4"
                 id="m741efc42ff"
                 style="stroke:#000000;stroke-width:0.5;" />
            </defs>
            <g
               id="g176">
              <use
                 style="stroke:#000000;stroke-width:0.5;"
                 x="54.0"
                 xlink:href="#m741efc42ff"
                 y="28.8"
                 id="use178" />
            </g>
          </g>
          <g
             id="text_1">
            <!-- 0.0 -->
            <defs
               id="defs181">
              <path
                 d=" M31.7812 66.4062 Q24.1719 66.4062 20.3281 58.9062 Q16.5 51.4219 16.5 36.375 Q16.5 21.3906 20.3281 13.8906 Q24.1719 6.39062 31.7812 6.39062 Q39.4531 6.39062 43.2812 13.8906 Q47.125 21.3906 47.125 36.375 Q47.125 51.4219 43.2812 58.9062 Q39.4531 66.4062 31.7812 66.4062 M31.7812 74.2188 Q44.0469 74.2188 50.5156 64.5156 Q56.9844 54.8281 56.9844 36.375 Q56.9844 17.9688 50.5156 8.26562 Q44.0469 -1.42188 31.7812 -1.42188 Q19.5312 -1.42188 13.0625 8.26562 Q6.59375 17.9688 6.59375 36.375 Q6.59375 54.8281 13.0625 64.5156 Q19.5312 74.2188 31.7812 74.2188"
                 id="BitstreamVeraSans-Roman-30" />
              <path
                 d=" M10.6875 12.4062 L21 12.4062 L21 0 L10.6875 0 z "
                 id="BitstreamVeraSans-Roman-2e" />
            </defs>
            <g
               transform="translate(43.065234375 267.39765625)scale(0.15 -0.15)"
               id="g185">
              <use
                 xlink:href="#BitstreamVeraSans-Roman-30"
                 id="use187" />
              <use
                 x="63.623046875"
                 xlink:href="#BitstreamVeraSans-Roman-2e"
                 id="use189" />
              <use
                 x="95.41015625"
                 xlink:href="#BitstreamVeraSans-Roman-30"
                 id="use191" />
            </g>
          </g>
        </g>
        <g
           id="xtick_2">
          <g
             id="line2d_4">
            <g
               id="g195">
              <use
                 style="stroke:#000000;stroke-width:0.5;"
                 x="95.85"
                 xlink:href="#m93b0483c22"
                 y="252.0"
                 id="use197" />
            </g>
          </g>
          <g
             id="line2d_5">
            <g
               id="g200">
              <use
                 style="stroke:#000000;stroke-width:0.5;"
                 x="95.85"
                 xlink:href="#m741efc42ff"
                 y="28.8"
                 id="use202" />
            </g>
          </g>
          <g
             id="text_2">
            <!-- 0.5 -->
            <defs
               id="defs205">
              <path
                 d=" M10.7969 72.9062 L49.5156 72.9062 L49.5156 64.5938 L19.8281 64.5938 L19.8281 46.7344 Q21.9688 47.4688 24.1094 47.8281 Q26.2656 48.1875 28.4219 48.1875 Q40.625 48.1875 47.75 41.5 Q54.8906 34.8125 54.8906 23.3906 Q54.8906 11.625 47.5625 5.09375 Q40.2344 -1.42188 26.9062 -1.42188 Q22.3125 -1.42188 17.5469 -0.640625 Q12.7969 0.140625 7.71875 1.70312 L7.71875 11.625 Q12.1094 9.23438 16.7969 8.0625 Q21.4844 6.89062 26.7031 6.89062 Q35.1562 6.89062 40.0781 11.3281 Q45.0156 15.7656 45.0156 23.3906 Q45.0156 31 40.0781 35.4375 Q35.1562 39.8906 26.7031 39.8906 Q22.75 39.8906 18.8125 39.0156 Q14.8906 38.1406 10.7969 36.2812 z "
                 id="BitstreamVeraSans-Roman-35" />
            </defs>
            <g
               transform="translate(85.072265625 267.39765625)scale(0.15 -0.15)"
               id="g208">
              <use
                 xlink:href="#BitstreamVeraSans-Roman-30"
                 id="use210" />
              <use
                 x="63.623046875"
                 xlink:href="#BitstreamVeraSans-Roman-2e"
                 id="use212" />
              <use
                 x="95.41015625"
                 xlink:href="#BitstreamVeraSans-Roman-35"
                 id="use214" />
            </g>
          </g>
        </g>
        <g
           id="xtick_3">
          <g
             id="line2d_6">
            <g
               id="g218">
              <use
                 style="stroke:#000000;stroke-width:0.5;"
                 x="137.7"
                 xlink:href="#m93b0483c22"
                 y="252.0"
                 id="use220" />
            </g>
          </g>
          <g
             id="line2d_7">
            <g
               id="g223">
              <use
                 style="stroke:#000000;stroke-width:0.5;"
                 x="137.7"
                 xlink:href="#m741efc42ff"
                 y="28.8"
                 id="use225" />
            </g>
          </g>
          <g
             id="text_3">
            <!-- 1.0 -->
            <defs
               id="defs228">
              <path
                 d=" M12.4062 8.29688 L28.5156 8.29688 L28.5156 63.9219 L10.9844 60.4062 L10.9844 69.3906 L28.4219 72.9062 L38.2812 72.9062 L38.2812 8.29688 L54.3906 8.29688 L54.3906 0 L12.4062 0 z "
                 id="BitstreamVeraSans-Roman-31" />
            </defs>
            <g
               transform="translate(127.09453125 267.39765625)scale(0.15 -0.15)"
               id="g231">
              <use
                 xlink:href="#BitstreamVeraSans-Roman-31"
                 id="use233" />
              <use
                 x="63.623046875"
                 xlink:href="#BitstreamVeraSans-Roman-2e"
                 id="use235" />
              <use
                 x="95.41015625"
                 xlink:href="#BitstreamVeraSans-Roman-30"
                 id="use237" />
            </g>
          </g>
        </g>
        <g
           id="xtick_4">
          <g
             id="line2d_8">
            <g
               id="g241">
              <use
                 style="stroke:#000000;stroke-width:0.5;"
                 x="179.55"
                 xlink:href="#m93b0483c22"
                 y="252.0"
                 id="use243" />
            </g>
          </g>
          <g
             id="line2d_9">
            <g
               id="g246">
              <use
                 style="stroke:#000000;stroke-width:0.5;"
                 x="179.55"
                 xlink:href="#m741efc42ff"
                 y="28.8"
                 id="use248" />
            </g>
          </g>
          <g
             id="text_4">
            <!-- 1.5 -->
            <g
               transform="translate(169.1015625 267.39765625)scale(0.15 -0.15)"
               id="g251">
              <use
                 xlink:href="#BitstreamVeraSans-Roman-31"
                 id="use253" />
              <use
                 x="63.623046875"
                 xlink:href="#BitstreamVeraSans-Roman-2e"
                 id="use255" />
              <use
                 x="95.41015625"
                 xlink:href="#BitstreamVeraSans-Roman-35"
                 id="use257" />
            </g>
          </g>
        </g>
        <g
           id="xtick_5">
          <g
             id="line2d_10">
            <g
               id="g261">
              <use
                 style="stroke:#000000;stroke-width:0.5;"
                 x="221.4"
                 xlink:href="#m93b0483c22"
                 y="252.0"
                 id="use263" />
            </g>
          </g>
          <g
             id="line2d_11">
            <g
               id="g266">
              <use
                 style="stroke:#000000;stroke-width:0.5;"
                 x="221.4"
                 xlink:href="#m741efc42ff"
                 y="28.8"
                 id="use268" />
            </g>
          </g>
          <g
             id="text_5">
            <!-- 2.0 -->
            <defs
               id="defs271">
              <path
                 d=" M19.1875 8.29688 L53.6094 8.29688 L53.6094 0 L7.32812 0 L7.32812 8.29688 Q12.9375 14.1094 22.625 23.8906 Q32.3281 33.6875 34.8125 36.5312 Q39.5469 41.8438 41.4219 45.5312 Q43.3125 49.2188 43.3125 52.7812 Q43.3125 58.5938 39.2344 62.25 Q35.1562 65.9219 28.6094 65.9219 Q23.9688 65.9219 18.8125 64.3125 Q13.6719 62.7031 7.8125 59.4219 L7.8125 69.3906 Q13.7656 71.7812 18.9375 73 Q24.125 74.2188 28.4219 74.2188 Q39.75 74.2188 46.4844 68.5469 Q53.2188 62.8906 53.2188 53.4219 Q53.2188 48.9219 51.5312 44.8906 Q49.8594 40.875 45.4062 35.4062 Q44.1875 33.9844 37.6406 27.2188 Q31.1094 20.4531 19.1875 8.29688"
                 id="BitstreamVeraSans-Roman-32" />
            </defs>
            <g
               transform="translate(210.5203125 267.39765625)scale(0.15 -0.15)"
               id="g274">
              <use
                 xlink:href="#BitstreamVeraSans-Roman-32"
                 id="use276" />
              <use
                 x="63.623046875"
                 xlink:href="#BitstreamVeraSans-Roman-2e"
                 id="use278" />
              <use
                 x="95.41015625"
                 xlink:href="#BitstreamVeraSans-Roman-30"
                 id="use280" />
            </g>
          </g>
        </g>
        <g
           id="xtick_6">
          <g
             id="line2d_12">
            <g
               id="g284">
              <use
                 style="stroke:#000000;stroke-width:0.5;"
                 x="263.25"
                 xlink:href="#m93b0483c22"
                 y="252.0"
                 id="use286" />
            </g>
          </g>
          <g
             id="line2d_13">
            <g
               id="g289">
              <use
                 style="stroke:#000000;stroke-width:0.5;"
                 x="263.25"
                 xlink:href="#m741efc42ff"
                 y="28.8"
                 id="use291" />
            </g>
          </g>
          <g
             id="text_6">
            <!-- 2.5 -->
            <g
               transform="translate(252.52734375 267.39765625)scale(0.15 -0.15)"
               id="g294">
              <use
                 xlink:href="#BitstreamVeraSans-Roman-32"
                 id="use296" />
              <use
                 x="63.623046875"
                 xlink:href="#BitstreamVeraSans-Roman-2e"
                 id="use298" />
              <use
                 x="95.41015625"
                 xlink:href="#BitstreamVeraSans-Roman-35"
                 id="use300" />
            </g>
          </g>
        </g>
        <g
           id="xtick_7">
          <g
             id="line2d_14">
            <g
               id="g304">
              <use
                 style="stroke:#000000;stroke-width:0.5;"
                 x="305.1"
                 xlink:href="#m93b0483c22"
                 y="252.0"
                 id="use306" />
            </g>
          </g>
          <g
             id="line2d_15">
            <g
               id="g309">
              <use
                 style="stroke:#000000;stroke-width:0.5;"
                 x="305.1"
                 xlink:href="#m741efc42ff"
                 y="28.8"
                 id="use311" />
            </g>
          </g>
          <g
             id="text_7">
            <!-- 3.0 -->
            <defs
               id="defs314">
              <path
                 d=" M40.5781 39.3125 Q47.6562 37.7969 51.625 33 Q55.6094 28.2188 55.6094 21.1875 Q55.6094 10.4062 48.1875 4.48438 Q40.7656 -1.42188 27.0938 -1.42188 Q22.5156 -1.42188 17.6562 -0.515625 Q12.7969 0.390625 7.625 2.20312 L7.625 11.7188 Q11.7188 9.32812 16.5938 8.10938 Q21.4844 6.89062 26.8125 6.89062 Q36.0781 6.89062 40.9375 10.5469 Q45.7969 14.2031 45.7969 21.1875 Q45.7969 27.6406 41.2812 31.2656 Q36.7656 34.9062 28.7188 34.9062 L20.2188 34.9062 L20.2188 43.0156 L29.1094 43.0156 Q36.375 43.0156 40.2344 45.9219 Q44.0938 48.8281 44.0938 54.2969 Q44.0938 59.9062 40.1094 62.9062 Q36.1406 65.9219 28.7188 65.9219 Q24.6562 65.9219 20.0156 65.0312 Q15.375 64.1562 9.8125 62.3125 L9.8125 71.0938 Q15.4375 72.6562 20.3438 73.4375 Q25.25 74.2188 29.5938 74.2188 Q40.8281 74.2188 47.3594 69.1094 Q53.9062 64.0156 53.9062 55.3281 Q53.9062 49.2656 50.4375 45.0938 Q46.9688 40.9219 40.5781 39.3125"
                 id="BitstreamVeraSans-Roman-33" />
            </defs>
            <g
               transform="translate(294.242578125 267.39765625)scale(0.15 -0.15)"
               id="g317">
              <use
                 xlink:href="#BitstreamVeraSans-Roman-33"
                 id="use319" />
              <use
                 x="63.623046875"
                 xlink:href="#BitstreamVeraSans-Roman-2e"
                 id="use321" />
              <use
                 x="95.41015625"
                 xlink:href="#BitstreamVeraSans-Roman-30"
                 id="use323" />
            </g>
          </g>
        </g>
        <g
           id="xtick_8">
          <g
             id="line2d_16">
            <g
               id="g327">
              <use
                 style="stroke:#000000;stroke-width:0.5;"
                 x="346.95"
                 xlink:href="#m93b0483c22"
                 y="252.0"
                 id="use329" />
            </g>
          </g>
          <g
             id="line2d_17">
            <g
               id="g332">
              <use
                 style="stroke:#000000;stroke-width:0.5;"
                 x="346.95"
                 xlink:href="#m741efc42ff"
                 y="28.8"
                 id="use334" />
            </g>
          </g>
          <g
             id="text_8">
            <!-- 3.5 -->
            <g
               transform="translate(336.249609375 267.39765625)scale(0.15 -0.15)"
               id="g337">
              <use
                 xlink:href="#BitstreamVeraSans-Roman-33"
                 id="use339" />
              <use
                 x="63.623046875"
                 xlink:href="#BitstreamVeraSans-Roman-2e"
                 id="use341" />
              <use
                 x="95.41015625"
                 xlink:href="#BitstreamVeraSans-Roman-35"
                 id="use343" />
            </g>
          </g>
        </g>
        <g
           id="xtick_9">
          <g
             id="line2d_18">
            <g
               id="g347">
              <use
                 style="stroke:#000000;stroke-width:0.5;"
                 x="388.8"
                 xlink:href="#m93b0483c22"
                 y="252.0"
                 id="use349" />
            </g>
          </g>
          <g
             id="line2d_19">
            <g
               id="g352">
              <use
                 style="stroke:#000000;stroke-width:0.5;"
                 x="388.8"
                 xlink:href="#m741efc42ff"
                 y="28.8"
                 id="use354" />
            </g>
          </g>
          <g
             id="text_9">
            <!-- 4.0 -->
            <defs
               id="defs357">
              <path
                 d=" M37.7969 64.3125 L12.8906 25.3906 L37.7969 25.3906 z  M35.2031 72.9062 L47.6094 72.9062 L47.6094 25.3906 L58.0156 25.3906 L58.0156 17.1875 L47.6094 17.1875 L47.6094 0 L37.7969 0 L37.7969 17.1875 L4.89062 17.1875 L4.89062 26.7031 z "
                 id="BitstreamVeraSans-Roman-34" />
            </defs>
            <g
               transform="translate(377.7375 267.39765625)scale(0.15 -0.15)"
               id="g360">
              <use
                 xlink:href="#BitstreamVeraSans-Roman-34"
                 id="use362" />
              <use
                 x="63.623046875"
                 xlink:href="#BitstreamVeraSans-Roman-2e"
                 id="use364" />
              <use
                 x="95.41015625"
                 xlink:href="#BitstreamVeraSans-Roman-30"
                 id="use366" />
            </g>
          </g>
        </g>
        <g
           id="text_10">
          <!-- $\lambda_{\ell}$ -->
          <defs
             id="defs369">
            <path
               d=" M2.39062 7.42188 Q1.95312 7.42188 1.46875 7.95312 Q0.984375 8.5 0.984375 8.98438 Q0.984375 9.8125 9.28125 17.3906 Q9.28125 17.8281 9.25 18.1094 Q9.23438 18.4062 9.1875 18.7031 Q9.1875 23 9.85938 27.4688 Q10.5469 31.9375 11.7344 36.375 Q12.9375 40.8281 14.7344 45.6562 Q16.5469 50.4844 18.4062 54.1094 Q21.625 60.6875 25.4375 65.5938 Q29.25 70.5156 33.8906 70.5156 Q37.0625 70.5156 38.4219 68.3281 Q39.7969 66.1562 39.7969 62.8906 Q39.7969 44.5781 15.4844 19.8281 Q15.0938 15.5312 15.0938 13.7188 Q15.0938 1.21875 20.7969 1.21875 Q23.25 1.21875 25.6562 2.51562 Q28.0781 3.8125 29.8125 5.32812 Q31.5469 6.84375 34.625 9.8125 Q34.8125 10.0156 35.2031 10.0156 Q35.75 10.0156 36.2344 9.42188 Q36.7188 8.84375 36.7188 8.29688 Q36.7188 7.95312 36.2812 7.625 Q31.8438 3.26562 28.2656 0.875 Q24.7031 -1.51562 20.6094 -1.51562 Q15.3281 -1.51562 12.7656 3.01562 Q10.2031 7.5625 9.51562 13.8125 Q6.84375 11.1406 2.98438 7.625 Q2.875 7.42188 2.39062 7.42188 M16.3125 24.6094 Q21.625 30.2812 26.2656 36.5312 Q30.9062 42.7812 34 49.6875 Q37.1094 56.5938 37.1094 63.1875 Q37.1094 67.9219 33.7969 67.9219 Q30.2188 67.9219 26.5 59.3906 Q22.7969 50.875 20.1562 40.9688 Q17.5312 31.0625 16.3125 24.6094"
               id="Cmmi10-60" />
            <path
               d=" M5.07812 1.70312 Q5.07812 3.17188 6.39062 4.5 L34.5156 32.0781 L24.6094 59.9062 Q23.4375 63.0938 22.1406 64.9375 Q20.8438 66.7969 18.4062 66.7969 Q17.2812 66.7969 17.2812 68.1094 Q17.3906 68.7031 17.7812 69.0469 Q18.1719 69.3906 18.7969 69.3906 Q29.2969 69.3906 31.5 63.1875 L51.8125 6.5 Q53.125 2.25 54.5 0.78125 Q54.9844 0.046875 54.9844 -0.203125 Q54.9844 -1.125 54.2031 -1.125 L48.7812 -1.125 Q46.2969 -0.390625 44.8281 3.21875 L35.6875 28.8125 L11.5312 0.390625 Q9.71875 -1.3125 8.29688 -1.3125 Q7.03125 -1.3125 6.04688 -0.4375 Q5.07812 0.4375 5.07812 1.70312"
               id="Cmmi10-b8" />
          </defs>
          <g
             transform="translate(208.2 296.5171875)scale(0.3 -0.3)"
             id="g373">
            <use
               transform="translate(0.0 0.609375)"
               xlink:href="#Cmmi10-b8"
               id="use375" />
            <use
               transform="translate(58.30078125 -24.9)scale(0.7)"
               xlink:href="#Cmmi10-60"
               id="use377" />
          </g>
        </g>
      </g>
      <g
         id="matplotlib.axis_2">
        <g
           id="ytick_1">
          <g
             id="line2d_20">
            <defs
               id="defs382">
              <path
                 d=" M0 0 L4 0"
                 id="m728421d6d4"
                 style="stroke:#000000;stroke-width:0.5;" />
            </defs>
            <g
               id="g385">
              <use
                 style="stroke:#000000;stroke-width:0.5;"
                 x="54.0"
                 xlink:href="#m728421d6d4"
                 y="252.0"
                 id="use387" />
            </g>
          </g>
          <g
             id="line2d_21">
            <defs
               id="defs390">
              <path
                 d=" M0 0 L-4 0"
                 id="mcb0005524f"
                 style="stroke:#000000;stroke-width:0.5;" />
            </defs>
            <g
               id="g393">
              <use
                 style="stroke:#000000;stroke-width:0.5;"
                 x="388.8"
                 xlink:href="#mcb0005524f"
                 y="252.0"
                 id="use395" />
            </g>
          </g>
          <g
             id="text_11">
            <!-- 0 -->
            <g
               transform="translate(42.44140625 256.1390625)scale(0.15 -0.15)"
               id="g398">
              <use
                 xlink:href="#BitstreamVeraSans-Roman-30"
                 id="use400" />
            </g>
          </g>
        </g>
        <g
           id="ytick_2">
          <g
             id="line2d_22">
            <g
               id="g404">
              <use
                 style="stroke:#000000;stroke-width:0.5;"
                 x="54.0"
                 xlink:href="#m728421d6d4"
                 y="220.114285714"
                 id="use406" />
            </g>
          </g>
          <g
             id="line2d_23">
            <g
               id="g409">
              <use
                 style="stroke:#000000;stroke-width:0.5;"
                 x="388.8"
                 xlink:href="#mcb0005524f"
                 y="220.114285714"
                 id="use411" />
            </g>
          </g>
          <g
             id="text_12">
            <!-- 10 -->
            <g
               transform="translate(33.55625 224.253348214)scale(0.15 -0.15)"
               id="g414">
              <use
                 xlink:href="#BitstreamVeraSans-Roman-31"
                 id="use416" />
              <use
                 x="63.623046875"
                 xlink:href="#BitstreamVeraSans-Roman-30"
                 id="use418" />
            </g>
          </g>
        </g>
        <g
           id="ytick_3">
          <g
             id="line2d_24">
            <g
               id="g422">
              <use
                 style="stroke:#000000;stroke-width:0.5;"
                 x="54.0"
                 xlink:href="#m728421d6d4"
                 y="188.228571429"
                 id="use424" />
            </g>
          </g>
          <g
             id="line2d_25">
            <g
               id="g427">
              <use
                 style="stroke:#000000;stroke-width:0.5;"
                 x="388.8"
                 xlink:href="#mcb0005524f"
                 y="188.228571429"
                 id="use429" />
            </g>
          </g>
          <g
             id="text_13">
            <!-- 20 -->
            <g
               transform="translate(33.0078125 192.367633929)scale(0.15 -0.15)"
               id="g432">
              <use
                 xlink:href="#BitstreamVeraSans-Roman-32"
                 id="use434" />
              <use
                 x="63.623046875"
                 xlink:href="#BitstreamVeraSans-Roman-30"
                 id="use436" />
            </g>
          </g>
        </g>
        <g
           id="ytick_4">
          <g
             id="line2d_26">
            <g
               id="g440">
              <use
                 style="stroke:#000000;stroke-width:0.5;"
                 x="54.0"
                 xlink:href="#m728421d6d4"
                 y="156.342857143"
                 id="use442" />
            </g>
          </g>
          <g
             id="line2d_27">
            <g
               id="g445">
              <use
                 style="stroke:#000000;stroke-width:0.5;"
                 x="388.8"
                 xlink:href="#mcb0005524f"
                 y="156.342857143"
                 id="use447" />
            </g>
          </g>
          <g
             id="text_14">
            <!-- 30 -->
            <g
               transform="translate(33.05234375 160.481919643)scale(0.15 -0.15)"
               id="g450">
              <use
                 xlink:href="#BitstreamVeraSans-Roman-33"
                 id="use452" />
              <use
                 x="63.623046875"
                 xlink:href="#BitstreamVeraSans-Roman-30"
                 id="use454" />
            </g>
          </g>
        </g>
        <g
           id="ytick_5">
          <g
             id="line2d_28">
            <g
               id="g458">
              <use
                 style="stroke:#000000;stroke-width:0.5;"
                 x="54.0"
                 xlink:href="#m728421d6d4"
                 y="124.457142857"
                 id="use460" />
            </g>
          </g>
          <g
             id="line2d_29">
            <g
               id="g463">
              <use
                 style="stroke:#000000;stroke-width:0.5;"
                 x="388.8"
                 xlink:href="#mcb0005524f"
                 y="124.457142857"
                 id="use465" />
            </g>
          </g>
          <g
             id="text_15">
            <!-- 40 -->
            <g
               transform="translate(32.6421875 128.596205357)scale(0.15 -0.15)"
               id="g468">
              <use
                 xlink:href="#BitstreamVeraSans-Roman-34"
                 id="use470" />
              <use
                 x="63.623046875"
                 xlink:href="#BitstreamVeraSans-Roman-30"
                 id="use472" />
            </g>
          </g>
        </g>
        <g
           id="ytick_6">
          <g
             id="line2d_30">
            <g
               id="g476">
              <use
                 style="stroke:#000000;stroke-width:0.5;"
                 x="54.0"
                 xlink:href="#m728421d6d4"
                 y="92.5714285714"
                 id="use478" />
            </g>
          </g>
          <g
             id="line2d_31">
            <g
               id="g481">
              <use
                 style="stroke:#000000;stroke-width:0.5;"
                 x="388.8"
                 xlink:href="#mcb0005524f"
                 y="92.5714285714"
                 id="use483" />
            </g>
          </g>
          <g
             id="text_16">
            <!-- 50 -->
            <g
               transform="translate(33.06640625 96.7104910714)scale(0.15 -0.15)"
               id="g486">
              <use
                 xlink:href="#BitstreamVeraSans-Roman-35"
                 id="use488" />
              <use
                 x="63.623046875"
                 xlink:href="#BitstreamVeraSans-Roman-30"
                 id="use490" />
            </g>
          </g>
        </g>
        <g
           id="ytick_7">
          <g
             id="line2d_32">
            <g
               id="g494">
              <use
                 style="stroke:#000000;stroke-width:0.5;"
                 x="54.0"
                 xlink:href="#m728421d6d4"
                 y="60.6857142857"
                 id="use496" />
            </g>
          </g>
          <g
             id="line2d_33">
            <g
               id="g499">
              <use
                 style="stroke:#000000;stroke-width:0.5;"
                 x="388.8"
                 xlink:href="#mcb0005524f"
                 y="60.6857142857"
                 id="use501" />
            </g>
          </g>
          <g
             id="text_17">
            <!-- 60 -->
            <defs
               id="defs504">
              <path
                 d=" M33.0156 40.375 Q26.375 40.375 22.4844 35.8281 Q18.6094 31.2969 18.6094 23.3906 Q18.6094 15.5312 22.4844 10.9531 Q26.375 6.39062 33.0156 6.39062 Q39.6562 6.39062 43.5312 10.9531 Q47.4062 15.5312 47.4062 23.3906 Q47.4062 31.2969 43.5312 35.8281 Q39.6562 40.375 33.0156 40.375 M52.5938 71.2969 L52.5938 62.3125 Q48.875 64.0625 45.0938 64.9844 Q41.3125 65.9219 37.5938 65.9219 Q27.8281 65.9219 22.6719 59.3281 Q17.5312 52.7344 16.7969 39.4062 Q19.6719 43.6562 24.0156 45.9219 Q28.375 48.1875 33.5938 48.1875 Q44.5781 48.1875 50.9531 41.5156 Q57.3281 34.8594 57.3281 23.3906 Q57.3281 12.1562 50.6875 5.35938 Q44.0469 -1.42188 33.0156 -1.42188 Q20.3594 -1.42188 13.6719 8.26562 Q6.98438 17.9688 6.98438 36.375 Q6.98438 53.6562 15.1875 63.9375 Q23.3906 74.2188 37.2031 74.2188 Q40.9219 74.2188 44.7031 73.4844 Q48.4844 72.75 52.5938 71.2969"
                 id="BitstreamVeraSans-Roman-36" />
            </defs>
            <g
               transform="translate(32.95625 64.8247767857)scale(0.15 -0.15)"
               id="g507">
              <use
                 xlink:href="#BitstreamVeraSans-Roman-36"
                 id="use509" />
              <use
                 x="63.623046875"
                 xlink:href="#BitstreamVeraSans-Roman-30"
                 id="use511" />
            </g>
          </g>
        </g>
        <g
           id="ytick_8">
          <g
             id="line2d_34">
            <g
               id="g515">
              <use
                 style="stroke:#000000;stroke-width:0.5;"
                 x="54.0"
                 xlink:href="#m728421d6d4"
                 y="28.8"
                 id="use517" />
            </g>
          </g>
          <g
             id="line2d_35">
            <g
               id="g520">
              <use
                 style="stroke:#000000;stroke-width:0.5;"
                 x="388.8"
                 xlink:href="#mcb0005524f"
                 y="28.8"
                 id="use522" />
            </g>
          </g>
          <g
             id="text_18">
            <!-- 70 -->
            <defs
               id="defs525">
              <path
                 d=" M8.20312 72.9062 L55.0781 72.9062 L55.0781 68.7031 L28.6094 0 L18.3125 0 L43.2188 64.5938 L8.20312 64.5938 z "
                 id="BitstreamVeraSans-Roman-37" />
            </defs>
            <g
               transform="translate(33.1390625 32.9390625)scale(0.15 -0.15)"
               id="g528">
              <use
                 xlink:href="#BitstreamVeraSans-Roman-37"
                 id="use530" />
              <use
                 x="63.623046875"
                 xlink:href="#BitstreamVeraSans-Roman-30"
                 id="use532" />
            </g>
          </g>
        </g>
        <g
           id="text_19">
          <!-- Number of zero crossings -->
          <defs
             id="defs535">
            <path
               id="BitstreamVeraSans-Roman-20" />
            <path
               d=" M9.8125 72.9062 L23.0938 72.9062 L55.4219 11.9219 L55.4219 72.9062 L64.9844 72.9062 L64.9844 0 L51.7031 0 L19.3906 60.9844 L19.3906 0 L9.8125 0 z "
               id="BitstreamVeraSans-Roman-4e" />
            <path
               d=" M37.1094 75.9844 L37.1094 68.5 L28.5156 68.5 Q23.6875 68.5 21.7969 66.5469 Q19.9219 64.5938 19.9219 59.5156 L19.9219 54.6875 L34.7188 54.6875 L34.7188 47.7031 L19.9219 47.7031 L19.9219 0 L10.8906 0 L10.8906 47.7031 L2.29688 47.7031 L2.29688 54.6875 L10.8906 54.6875 L10.8906 58.5 Q10.8906 67.625 15.1406 71.7969 Q19.3906 75.9844 28.6094 75.9844 z "
               id="BitstreamVeraSans-Roman-66" />
            <path
               d=" M54.8906 33.0156 L54.8906 0 L45.9062 0 L45.9062 32.7188 Q45.9062 40.4844 42.875 44.3281 Q39.8438 48.1875 33.7969 48.1875 Q26.5156 48.1875 22.3125 43.5469 Q18.1094 38.9219 18.1094 30.9062 L18.1094 0 L9.07812 0 L9.07812 54.6875 L18.1094 54.6875 L18.1094 46.1875 Q21.3438 51.125 25.7031 53.5625 Q30.0781 56 35.7969 56 Q45.2188 56 50.0469 50.1719 Q54.8906 44.3438 54.8906 33.0156"
               id="BitstreamVeraSans-Roman-6e" />
            <path
               d=" M52 44.1875 Q55.375 50.25 60.0625 53.125 Q64.75 56 71.0938 56 Q79.6406 56 84.2812 50.0156 Q88.9219 44.0469 88.9219 33.0156 L88.9219 0 L79.8906 0 L79.8906 32.7188 Q79.8906 40.5781 77.0938 44.375 Q74.3125 48.1875 68.6094 48.1875 Q61.625 48.1875 57.5625 43.5469 Q53.5156 38.9219 53.5156 30.9062 L53.5156 0 L44.4844 0 L44.4844 32.7188 Q44.4844 40.625 41.7031 44.4062 Q38.9219 48.1875 33.1094 48.1875 Q26.2188 48.1875 22.1562 43.5312 Q18.1094 38.875 18.1094 30.9062 L18.1094 0 L9.07812 0 L9.07812 54.6875 L18.1094 54.6875 L18.1094 46.1875 Q21.1875 51.2188 25.4844 53.6094 Q29.7812 56 35.6875 56 Q41.6562 56 45.8281 52.9688 Q50 49.9531 52 44.1875"
               id="BitstreamVeraSans-Roman-6d" />
            <path
               d=" M30.6094 48.3906 Q23.3906 48.3906 19.1875 42.75 Q14.9844 37.1094 14.9844 27.2969 Q14.9844 17.4844 19.1562 11.8438 Q23.3438 6.20312 30.6094 6.20312 Q37.7969 6.20312 41.9844 11.8594 Q46.1875 17.5312 46.1875 27.2969 Q46.1875 37.0156 41.9844 42.7031 Q37.7969 48.3906 30.6094 48.3906 M30.6094 56 Q42.3281 56 49.0156 48.375 Q55.7188 40.7656 55.7188 27.2969 Q55.7188 13.875 49.0156 6.21875 Q42.3281 -1.42188 30.6094 -1.42188 Q18.8438 -1.42188 12.1719 6.21875 Q5.51562 13.875 5.51562 27.2969 Q5.51562 40.7656 12.1719 48.375 Q18.8438 56 30.6094 56"
               id="BitstreamVeraSans-Roman-6f" />
            <path
               d=" M5.51562 54.6875 L48.1875 54.6875 L48.1875 46.4844 L14.4062 7.17188 L48.1875 7.17188 L48.1875 0 L4.29688 0 L4.29688 8.20312 L38.0938 47.5156 L5.51562 47.5156 z "
               id="BitstreamVeraSans-Roman-7a" />
            <path
               d=" M9.42188 54.6875 L18.4062 54.6875 L18.4062 0 L9.42188 0 z  M9.42188 75.9844 L18.4062 75.9844 L18.4062 64.5938 L9.42188 64.5938 z "
               id="BitstreamVeraSans-Roman-69" />
            <path
               d=" M56.2031 29.5938 L56.2031 25.2031 L14.8906 25.2031 Q15.4844 15.9219 20.4844 11.0625 Q25.4844 6.20312 34.4219 6.20312 Q39.5938 6.20312 44.4531 7.46875 Q49.3125 8.73438 54.1094 11.2812 L54.1094 2.78125 Q49.2656 0.734375 44.1875 -0.34375 Q39.1094 -1.42188 33.8906 -1.42188 Q20.7969 -1.42188 13.1562 6.1875 Q5.51562 13.8125 5.51562 26.8125 Q5.51562 40.2344 12.7656 48.1094 Q20.0156 56 32.3281 56 Q43.3594 56 49.7812 48.8906 Q56.2031 41.7969 56.2031 29.5938 M47.2188 32.2344 Q47.125 39.5938 43.0938 43.9844 Q39.0625 48.3906 32.4219 48.3906 Q24.9062 48.3906 20.3906 44.1406 Q15.875 39.8906 15.1875 32.1719 z "
               id="BitstreamVeraSans-Roman-65" />
            <path
               d=" M45.4062 27.9844 Q45.4062 37.75 41.375 43.1094 Q37.3594 48.4844 30.0781 48.4844 Q22.8594 48.4844 18.8281 43.1094 Q14.7969 37.75 14.7969 27.9844 Q14.7969 18.2656 18.8281 12.8906 Q22.8594 7.51562 30.0781 7.51562 Q37.3594 7.51562 41.375 12.8906 Q45.4062 18.2656 45.4062 27.9844 M54.3906 6.78125 Q54.3906 -7.17188 48.1875 -13.9844 Q42 -20.7969 29.2031 -20.7969 Q24.4688 -20.7969 20.2656 -20.0938 Q16.0625 -19.3906 12.1094 -17.9219 L12.1094 -9.1875 Q16.0625 -11.3281 19.9219 -12.3438 Q23.7812 -13.375 27.7812 -13.375 Q36.625 -13.375 41.0156 -8.76562 Q45.4062 -4.15625 45.4062 5.17188 L45.4062 9.625 Q42.625 4.78125 38.2812 2.39062 Q33.9375 0 27.875 0 Q17.8281 0 11.6719 7.65625 Q5.51562 15.3281 5.51562 27.9844 Q5.51562 40.6719 11.6719 48.3281 Q17.8281 56 27.875 56 Q33.9375 56 38.2812 53.6094 Q42.625 51.2188 45.4062 46.3906 L45.4062 54.6875 L54.3906 54.6875 z "
               id="BitstreamVeraSans-Roman-67" />
            <path
               d=" M8.5 21.5781 L8.5 54.6875 L17.4844 54.6875 L17.4844 21.9219 Q17.4844 14.1562 20.5 10.2656 Q23.5312 6.39062 29.5938 6.39062 Q36.8594 6.39062 41.0781 11.0312 Q45.3125 15.6719 45.3125 23.6875 L45.3125 54.6875 L54.2969 54.6875 L54.2969 0 L45.3125 0 L45.3125 8.40625 Q42.0469 3.42188 37.7188 1 Q33.4062 -1.42188 27.6875 -1.42188 Q18.2656 -1.42188 13.375 4.4375 Q8.5 10.2969 8.5 21.5781"
               id="BitstreamVeraSans-Roman-75" />
            <path
               d=" M41.1094 46.2969 Q39.5938 47.1719 37.8125 47.5781 Q36.0312 48 33.8906 48 Q26.2656 48 22.1875 43.0469 Q18.1094 38.0938 18.1094 28.8125 L18.1094 0 L9.07812 0 L9.07812 54.6875 L18.1094 54.6875 L18.1094 46.1875 Q20.9531 51.1719 25.4844 53.5781 Q30.0312 56 36.5312 56 Q37.4531 56 38.5781 55.875 Q39.7031 55.7656 41.0625 55.5156 z "
               id="BitstreamVeraSans-Roman-72" />
            <path
               d=" M44.2812 53.0781 L44.2812 44.5781 Q40.4844 46.5312 36.375 47.5 Q32.2812 48.4844 27.875 48.4844 Q21.1875 48.4844 17.8438 46.4375 Q14.5 44.3906 14.5 40.2812 Q14.5 37.1562 16.8906 35.375 Q19.2812 33.5938 26.5156 31.9844 L29.5938 31.2969 Q39.1562 29.25 43.1875 25.5156 Q47.2188 21.7812 47.2188 15.0938 Q47.2188 7.46875 41.1875 3.01562 Q35.1562 -1.42188 24.6094 -1.42188 Q20.2188 -1.42188 15.4531 -0.5625 Q10.6875 0.296875 5.42188 2 L5.42188 11.2812 Q10.4062 8.6875 15.2344 7.39062 Q20.0625 6.10938 24.8125 6.10938 Q31.1562 6.10938 34.5625 8.28125 Q37.9844 10.4531 37.9844 14.4062 Q37.9844 18.0625 35.5156 20.0156 Q33.0625 21.9688 24.7031 23.7812 L21.5781 24.5156 Q13.2344 26.2656 9.51562 29.9062 Q5.8125 33.5469 5.8125 39.8906 Q5.8125 47.6094 11.2812 51.7969 Q16.75 56 26.8125 56 Q31.7812 56 36.1719 55.2656 Q40.5781 54.5469 44.2812 53.0781"
               id="BitstreamVeraSans-Roman-73" />
            <path
               d=" M48.7812 52.5938 L48.7812 44.1875 Q44.9688 46.2969 41.1406 47.3438 Q37.3125 48.3906 33.4062 48.3906 Q24.6562 48.3906 19.8125 42.8438 Q14.9844 37.3125 14.9844 27.2969 Q14.9844 17.2812 19.8125 11.7344 Q24.6562 6.20312 33.4062 6.20312 Q37.3125 6.20312 41.1406 7.25 Q44.9688 8.29688 48.7812 10.4062 L48.7812 2.09375 Q45.0156 0.34375 40.9844 -0.53125 Q36.9688 -1.42188 32.4219 -1.42188 Q20.0625 -1.42188 12.7812 6.34375 Q5.51562 14.1094 5.51562 27.2969 Q5.51562 40.6719 12.8594 48.3281 Q20.2188 56 33.0156 56 Q37.1562 56 41.1094 55.1406 Q45.0625 54.2969 48.7812 52.5938"
               id="BitstreamVeraSans-Roman-63" />
            <path
               d=" M48.6875 27.2969 Q48.6875 37.2031 44.6094 42.8438 Q40.5312 48.4844 33.4062 48.4844 Q26.2656 48.4844 22.1875 42.8438 Q18.1094 37.2031 18.1094 27.2969 Q18.1094 17.3906 22.1875 11.75 Q26.2656 6.10938 33.4062 6.10938 Q40.5312 6.10938 44.6094 11.75 Q48.6875 17.3906 48.6875 27.2969 M18.1094 46.3906 Q20.9531 51.2656 25.2656 53.625 Q29.5938 56 35.5938 56 Q45.5625 56 51.7812 48.0938 Q58.0156 40.1875 58.0156 27.2969 Q58.0156 14.4062 51.7812 6.48438 Q45.5625 -1.42188 35.5938 -1.42188 Q29.5938 -1.42188 25.2656 0.953125 Q20.9531 3.32812 18.1094 8.20312 L18.1094 0 L9.07812 0 L9.07812 75.9844 L18.1094 75.9844 z "
               id="BitstreamVeraSans-Roman-62" />
          </defs>
          <g
             transform="translate(24.52265625 235.54453125)rotate(-90.0)scale(0.15 -0.15)"
             id="g552">
            <use
               xlink:href="#BitstreamVeraSans-Roman-4e"
               id="use554" />
            <use
               x="74.8046875"
               xlink:href="#BitstreamVeraSans-Roman-75"
               id="use556" />
            <use
               x="138.18359375"
               xlink:href="#BitstreamVeraSans-Roman-6d"
               id="use558" />
            <use
               x="235.595703125"
               xlink:href="#BitstreamVeraSans-Roman-62"
               id="use560" />
            <use
               x="299.072265625"
               xlink:href="#BitstreamVeraSans-Roman-65"
               id="use562" />
            <use
               x="360.595703125"
               xlink:href="#BitstreamVeraSans-Roman-72"
               id="use564" />
            <use
               x="401.708984375"
               xlink:href="#BitstreamVeraSans-Roman-20"
               id="use566" />
            <use
               x="433.49609375"
               xlink:href="#BitstreamVeraSans-Roman-6f"
               id="use568" />
            <use
               x="494.677734375"
               xlink:href="#BitstreamVeraSans-Roman-66"
               id="use570" />
            <use
               x="529.8828125"
               xlink:href="#BitstreamVeraSans-Roman-20"
               id="use572" />
            <use
               x="561.669921875"
               xlink:href="#BitstreamVeraSans-Roman-7a"
               id="use574" />
            <use
               x="614.16015625"
               xlink:href="#BitstreamVeraSans-Roman-65"
               id="use576" />
            <use
               x="675.68359375"
               xlink:href="#BitstreamVeraSans-Roman-72"
               id="use578" />
            <use
               x="714.546875"
               xlink:href="#BitstreamVeraSans-Roman-6f"
               id="use580" />
            <use
               x="775.728515625"
               xlink:href="#BitstreamVeraSans-Roman-20"
               id="use582" />
            <use
               x="807.515625"
               xlink:href="#BitstreamVeraSans-Roman-63"
               id="use584" />
            <use
               x="862.49609375"
               xlink:href="#BitstreamVeraSans-Roman-72"
               id="use586" />
            <use
               x="901.359375"
               xlink:href="#BitstreamVeraSans-Roman-6f"
               id="use588" />
            <use
               x="962.541015625"
               xlink:href="#BitstreamVeraSans-Roman-73"
               id="use590" />
            <use
               x="1014.640625"
               xlink:href="#BitstreamVeraSans-Roman-73"
               id="use592" />
            <use
               x="1066.74023438"
               xlink:href="#BitstreamVeraSans-Roman-69"
               id="use594" />
            <use
               x="1094.5234375"
               xlink:href="#BitstreamVeraSans-Roman-6e"
               id="use596" />
            <use
               x="1157.90234375"
               xlink:href="#BitstreamVeraSans-Roman-67"
               id="use598" />
            <use
               x="1221.37890625"
               xlink:href="#BitstreamVeraSans-Roman-73"
               id="use600" />
          </g>
        </g>
      </g>
    </g>
  </g>
  <defs
     id="defs602">
    <clipPath
       id="p124b8dd147">
      <rect
         height="223.2"
         width="334.8"
         x="54.0"
         y="28.8"
         id="rect605" />
    </clipPath>
  </defs>
</svg>
